Projects/2.[8to1]mux/test.log
# vsim -debugdb -c -do "log -r /*; save -onexit -directive -codeAll;run -all;exit" -l test.log work.top 
# Start time: 13:52:16 on Dec 06,2022
# ** Warning: (vsim-4308) Enabling visibility using +acc is recommended with debug flow.
# ** Note: (vsim-3813) Design is being optimized due to module recompilation...
# ** Note: (vsim-8611) Generating debug db.
# ** Warning: (vopt-4308) Enabling visibility using +acc is recommended with debug flow.
# ** Note: (vsim-12126) Error and warning message counts have been restored: Errors=0, Warnings=2.
# //  Questa Sim-64
# //  Version 2021.4_3 linux_x86_64 Feb  5 2022
# //
# //  Copyright 1991-2022 Mentor Graphics Corporation
# //  All Rights Reserved.
# //
# //  QuestaSim and its associated documentation contain trade
# //  secrets and commercial or financial information that are the property of
# //  Mentor Graphics Corporation and are privileged, confidential,
# //  and exempt from disclosure under the Freedom of Information Act,
# //  5 U.S.C. Section 552. Furthermore, this information
# //  is prohibited from disclosure under the Trade Secrets Act,
# //  18 U.S.C. Section 1905.
# //
# Loading sv_std.std
# Loading work.Package_sv_unit(fast)
# Loading work.top(fast)
# Loading work.mux_intf(fast__2)
# Loading work.mux8to1(fast)
# Loading work.mux_intf(fast)
# ** Note: (vsim-8900) Creating design debug database vsim.dbg.
# log -r /*
#  save -onexit -directive -codeAll
# invalid command name "save"
# run -all
#                    5inside the interface cb driver mux_out=x data_in=xxxxxxxx selection_in=xxx  
#                    5inside dut data_in=xxxxxxxx selection_in=x mux_out=x clk=1 
#                    5mb2='{data_in:0, selection_in:0, clk:0, mux_out:0}
#                    5mb3='{data_in:0, selection_in:0, clk:0, mux_out:0}
#                    5
# PASS 	 TB  data_in=00000000 selection_in=0 mux_out=0 
#  DUT  data_in=00000000 selection_in=0 mux_out=0 
#                   15inside the interface cb driver mux_out=x data_in=00110011 selection_in=010  
#                   15inside dut data_in=00110011 selection_in=2 mux_out=x clk=1 
#                   15mb2='{data_in:51, selection_in:2, clk:0, mux_out:0}
#                   15mb3='{data_in:51, selection_in:2, clk:0, mux_out:0}
#                   15
# PASS 	 TB  data_in=00110011 selection_in=2 mux_out=0 
#  DUT  data_in=00110011 selection_in=2 mux_out=0 
#                   25inside the interface cb driver mux_out=0 data_in=01000100 selection_in=011  
#                   25inside dut data_in=01000100 selection_in=3 mux_out=0 clk=1 
#                   25mb2='{data_in:68, selection_in:3, clk:0, mux_out:0}
#                   25mb3='{data_in:68, selection_in:3, clk:0, mux_out:0}
#                   25
# PASS 	 TB  data_in=01000100 selection_in=3 mux_out=0 
#  DUT  data_in=01000100 selection_in=3 mux_out=0 
#                   35inside the interface cb driver mux_out=0 data_in=00011010 selection_in=001  
#                   35inside dut data_in=00011010 selection_in=1 mux_out=0 clk=1 
#                   35mb2='{data_in:26, selection_in:1, clk:0, mux_out:1}
#                   35mb3='{data_in:26, selection_in:1, clk:0, mux_out:1}
#                   35
# PASS 	 TB  data_in=00011010 selection_in=1 mux_out=1 
#  DUT  data_in=00011010 selection_in=1 mux_out=1 
#                   45inside the interface cb driver mux_out=1 data_in=00100111 selection_in=101  
#                   45inside dut data_in=00100111 selection_in=5 mux_out=1 clk=1 
#                   45mb2='{data_in:39, selection_in:5, clk:0, mux_out:1}
#                   45mb3='{data_in:39, selection_in:5, clk:0, mux_out:1}
#                   45
# PASS 	 TB  data_in=00100111 selection_in=5 mux_out=1 
#  DUT  data_in=00100111 selection_in=5 mux_out=1 
#                   55inside the interface cb driver mux_out=1 data_in=01101110 selection_in=101  
#                   55inside dut data_in=01101110 selection_in=5 mux_out=1 clk=1 
#                   55mb2='{data_in:110, selection_in:5, clk:0, mux_out:1}
#                   55mb3='{data_in:110, selection_in:5, clk:0, mux_out:1}
#                   55
# PASS 	 TB  data_in=01101110 selection_in=5 mux_out=1 
#  DUT  data_in=01101110 selection_in=5 mux_out=1 
#                   65inside the interface cb driver mux_out=1 data_in=01110111 selection_in=110  
#                   65inside dut data_in=01110111 selection_in=6 mux_out=1 clk=1 
#                   65mb2='{data_in:119, selection_in:6, clk:0, mux_out:1}
#                   65mb3='{data_in:119, selection_in:6, clk:0, mux_out:1}
#                   65
# PASS 	 TB  data_in=01110111 selection_in=6 mux_out=1 
#  DUT  data_in=01110111 selection_in=6 mux_out=1 
#                   75inside the interface cb driver mux_out=1 data_in=00001011 selection_in=101  
#                   75inside dut data_in=00001011 selection_in=5 mux_out=1 clk=1 
#                   75mb2='{data_in:11, selection_in:5, clk:0, mux_out:0}
#                   75mb3='{data_in:11, selection_in:5, clk:0, mux_out:0}
#                   75
# PASS 	 TB  data_in=00001011 selection_in=5 mux_out=0 
#  DUT  data_in=00001011 selection_in=5 mux_out=0 
#                   85inside the interface cb driver mux_out=0 data_in=01001101 selection_in=111  
#                   85inside dut data_in=01001101 selection_in=7 mux_out=0 clk=1 
#                   85mb2='{data_in:77, selection_in:7, clk:0, mux_out:0}
#                   85mb3='{data_in:77, selection_in:7, clk:0, mux_out:0}
#                   85
# PASS 	 TB  data_in=01001101 selection_in=7 mux_out=0 
#  DUT  data_in=01001101 selection_in=7 mux_out=0 
#                   95inside the interface cb driver mux_out=0 data_in=01001101 selection_in=110  
#                   95inside dut data_in=01001101 selection_in=6 mux_out=0 clk=1 
#                   95mb2='{data_in:77, selection_in:6, clk:0, mux_out:1}
#                   95mb3='{data_in:77, selection_in:6, clk:0, mux_out:1}
#                   95
# PASS 	 TB  data_in=01001101 selection_in=6 mux_out=1 
#  DUT  data_in=01001101 selection_in=6 mux_out=1 
#                  105inside the interface cb driver mux_out=1 data_in=00111110 selection_in=101  
#                  105inside dut data_in=00111110 selection_in=5 mux_out=1 clk=1 
#                  105mb2='{data_in:62, selection_in:5, clk:0, mux_out:1}
#                  105mb3='{data_in:62, selection_in:5, clk:0, mux_out:1}
#                  105
# PASS 	 TB  data_in=00111110 selection_in=5 mux_out=1 
#  DUT  data_in=00111110 selection_in=5 mux_out=1 
#                  115inside the interface cb driver mux_out=1 data_in=01110110 selection_in=011  
#                  115inside dut data_in=01110110 selection_in=3 mux_out=1 clk=1 
#                  115mb2='{data_in:118, selection_in:3, clk:0, mux_out:0}
#                  115mb3='{data_in:118, selection_in:3, clk:0, mux_out:0}
#                  115
# PASS 	 TB  data_in=01110110 selection_in=3 mux_out=0 
#  DUT  data_in=01110110 selection_in=3 mux_out=0 
#                  125inside the interface cb driver mux_out=0 data_in=01010101 selection_in=110  
#                  125inside dut data_in=01010101 selection_in=6 mux_out=0 clk=1 
#                  125mb2='{data_in:85, selection_in:6, clk:0, mux_out:1}
#                  125mb3='{data_in:85, selection_in:6, clk:0, mux_out:1}
#                  125
# PASS 	 TB  data_in=01010101 selection_in=6 mux_out=1 
#  DUT  data_in=01010101 selection_in=6 mux_out=1 
#                  135inside the interface cb driver mux_out=1 data_in=00111100 selection_in=001  
#                  135inside dut data_in=00111100 selection_in=1 mux_out=1 clk=1 
#                  135mb2='{data_in:60, selection_in:1, clk:0, mux_out:0}
#                  135mb3='{data_in:60, selection_in:1, clk:0, mux_out:0}
#                  135
# PASS 	 TB  data_in=00111100 selection_in=1 mux_out=0 
#  DUT  data_in=00111100 selection_in=1 mux_out=0 
#                  145inside the interface cb driver mux_out=0 data_in=01001001 selection_in=001  
#                  145inside dut data_in=01001001 selection_in=1 mux_out=0 clk=1 
#                  145mb2='{data_in:73, selection_in:1, clk:0, mux_out:0}
#                  145mb3='{data_in:73, selection_in:1, clk:0, mux_out:0}
#                  145
# PASS 	 TB  data_in=01001001 selection_in=1 mux_out=0 
#  DUT  data_in=01001001 selection_in=1 mux_out=0 
#                  155inside the interface cb driver mux_out=0 data_in=01110111 selection_in=010  
#                  155inside dut data_in=01110111 selection_in=2 mux_out=0 clk=1 
#                  155mb2='{data_in:119, selection_in:2, clk:0, mux_out:1}
#                  155mb3='{data_in:119, selection_in:2, clk:0, mux_out:1}
#                  155
# PASS 	 TB  data_in=01110111 selection_in=2 mux_out=1 
#  DUT  data_in=01110111 selection_in=2 mux_out=1 
#                  165inside the interface cb driver mux_out=1 data_in=01010100 selection_in=100  
#                  165inside dut data_in=01010100 selection_in=4 mux_out=1 clk=1 
#                  165mb2='{data_in:84, selection_in:4, clk:0, mux_out:1}
#                  165mb3='{data_in:84, selection_in:4, clk:0, mux_out:1}
#                  165
# PASS 	 TB  data_in=01010100 selection_in=4 mux_out=1 
#  DUT  data_in=01010100 selection_in=4 mux_out=1 
#                  175inside the interface cb driver mux_out=1 data_in=01011011 selection_in=101  
#                  175inside dut data_in=01011011 selection_in=5 mux_out=1 clk=1 
#                  175mb2='{data_in:91, selection_in:5, clk:0, mux_out:0}
#                  175mb3='{data_in:91, selection_in:5, clk:0, mux_out:0}
#                  175
# PASS 	 TB  data_in=01011011 selection_in=5 mux_out=0 
#  DUT  data_in=01011011 selection_in=5 mux_out=0 
#                  185inside the interface cb driver mux_out=0 data_in=00010000 selection_in=010  
#                  185inside dut data_in=00010000 selection_in=2 mux_out=0 clk=1 
#                  185mb2='{data_in:16, selection_in:2, clk:0, mux_out:0}
#                  185mb3='{data_in:16, selection_in:2, clk:0, mux_out:0}
#                  185
# PASS 	 TB  data_in=00010000 selection_in=2 mux_out=0 
#  DUT  data_in=00010000 selection_in=2 mux_out=0 
#                  195inside the interface cb driver mux_out=0 data_in=01011111 selection_in=001  
#                  195inside dut data_in=01011111 selection_in=1 mux_out=0 clk=1 
#                  195mb2='{data_in:95, selection_in:1, clk:0, mux_out:1}
#                  195mb3='{data_in:95, selection_in:1, clk:0, mux_out:1}
#                  195
# PASS 	 TB  data_in=01011111 selection_in=1 mux_out=1 
#  DUT  data_in=01011111 selection_in=1 mux_out=1 
# ** Note: $finish    : top_mux.sv(27)
#    Time: 200 ns  Iteration: 0  Instance: /top
# End time: 13:52:17 on Dec 06,2022, Elapsed time: 0:00:01
# Errors: 0, Warnings: 2
