Projects/UDC/test.log
# vsim -debugdb -c -do "log -r /*; save -onexit -directive -codeAll;run -all;exit" -l test.log work.top 
# Start time: 15:59:44 on Dec 10,2022
# ** Warning: (vsim-4308) Enabling visibility using +acc is recommended with debug flow.
# ** Note: (vsim-3813) Design is being optimized due to module recompilation...
# ** Note: (vsim-8611) Generating debug db.
# ** Warning: (vopt-4308) Enabling visibility using +acc is recommended with debug flow.
# ** Note: (vsim-12126) Error and warning message counts have been restored: Errors=0, Warnings=2.
# //  Questa Sim-64
# //  Version 2021.4_3 linux_x86_64 Feb  5 2022
# //
# //  Copyright 1991-2022 Mentor Graphics Corporation
# //  All Rights Reserved.
# //
# //  QuestaSim and its associated documentation contain trade
# //  secrets and commercial or financial information that are the property of
# //  Mentor Graphics Corporation and are privileged, confidential,
# //  and exempt from disclosure under the Freedom of Information Act,
# //  5 U.S.C. Section 552. Furthermore, this information
# //  is prohibited from disclosure under the Trade Secrets Act,
# //  18 U.S.C. Section 1905.
# //
# Loading sv_std.std
# Loading work.Package_sv_unit(fast)
# Loading work.top(fast)
# Loading work.UDC_intf(fast__2)
# Loading work.updown(fast)
# Loading work.UDC_intf(fast)
# ** Note: (vsim-8900) Creating design debug database vsim.dbg.
# log -r /*
#  save -onexit -directive -codeAll
# invalid command name "save"
# run -all
#                    0ncs=x nrd=x nwr=x start_in=x A0=x A1=x din=x  cout=x 
#                    5ncs=x nrd=x nwr=x start_in=x A0=x A1=x din=x  cout=x 
# -start flag-0 x           0
#                   10ncs=x nrd=x nwr=x start_in=x A0=x A1=x din=x  cout=x 
#                   15ncs=x nrd=x nwr=x start_in=x A0=x A1=x din=x  cout=x 
# -start flag-0 x           0
#                   20ncs=x nrd=x nwr=x start_in=x A0=x A1=x din=x  cout=0 
#                   25ncs=x nrd=x nwr=x start_in=x A0=x A1=x din=x  cout=0 
# -start flag-0 x           0
#                   30ncs=0 nrd=1 nwr=1 start_in=0 A0=1 A1=0 din=6  cout=0 
#                   35ncs=0 nrd=1 nwr=1 start_in=0 A0=1 A1=0 din=6  cout=0 
# -start flag-0 0           0
#                   40ncs=0 nrd=1 nwr=1 start_in=0 A0=0 A1=0 din=176  cout=0 
#                   45ncs=0 nrd=1 nwr=1 start_in=0 A0=0 A1=0 din=176  cout=0 
# -start flag-0 0           0
#                   50ncs=0 nrd=1 nwr=0 start_in=0 A0=0 A1=0 din=10  cout=0 
#                   55ncs=0 nrd=1 nwr=0 start_in=0 A0=0 A1=0 din=10  cout=0 
# -start flag-0 0           0
#                   60ncs=0 nrd=1 nwr=0 start_in=0 A0=1 A1=0 din=15  cout=0 
#                   65ncs=0 nrd=1 nwr=0 start_in=0 A0=1 A1=0 din=15  cout=0 
# -start flag-0 0           0
#                   70ncs=0 nrd=1 nwr=0 start_in=0 A0=0 A1=1 din=5  cout=0 
#                   75ncs=0 nrd=1 nwr=0 start_in=0 A0=0 A1=1 din=5  cout=0 
# -start flag-0 0           0
#                   80ncs=0 nrd=1 nwr=0 start_in=0 A0=1 A1=1 din=2  cout=0 
#                   85ncs=0 nrd=1 nwr=0 start_in=0 A0=1 A1=1 din=2  cout=0 
# -start flag-0 0           0
#                   90ncs=0 nrd=1 nwr=1 start_in=0 A0=1 A1=0 din=49  cout=0 
#                   95ncs=0 nrd=1 nwr=1 start_in=0 A0=1 A1=0 din=49  cout=0 
# -start flag-0 0           0
#                  100ncs=0 nrd=1 nwr=1 start_in=0 A0=1 A1=0 din=116  cout=0 
#                  105ncs=0 nrd=1 nwr=1 start_in=0 A0=1 A1=0 din=116  cout=0 
# -start flag-0 0           0
#                  110ncs=0 nrd=1 nwr=1 start_in=1 A0=1 A1=0 din=70  cout=0 
#                  115ncs=0 nrd=1 nwr=1 start_in=1 A0=1 A1=0 din=70  cout=0 
#                  115ontime=115.000000 on flag=1
#                  115on_flag=1
# -start flag-0 1           1
#                  120ncs=0 nrd=1 nwr=1 start_in=0 A0=1 A1=0 din=243  cout=10 
#                  125ncs=0 nrd=1 nwr=1 start_in=0 A0=1 A1=0 din=243  cout=10 
#                  125offtime=125.000000
#                  125off-on=-10.000000 start flag==1 
#                  125PLR=10 ULR=15 LLR=5 CCR=2
# -start flag-1 0           0
#                  130ncs=0 nrd=1 nwr=1 start_in=0 A0=1 A1=0 din=243  cout=11 
#                  135ncs=0 nrd=1 nwr=1 start_in=0 A0=1 A1=0 din=243  cout=11 
# -start flag-1 0           0
#                  140ncs=0 nrd=1 nwr=1 start_in=0 A0=1 A1=0 din=243  cout=12 
#                  145ncs=0 nrd=1 nwr=1 start_in=0 A0=1 A1=0 din=243  cout=12 
# -start flag-1 0           0
#                  150ncs=0 nrd=1 nwr=1 start_in=0 A0=1 A1=0 din=243  cout=13 
#                  155ncs=0 nrd=1 nwr=1 start_in=0 A0=1 A1=0 din=243  cout=13 
# -start flag-1 0           0
#                  160ncs=0 nrd=1 nwr=1 start_in=0 A0=1 A1=0 din=243  cout=14 
#                  165ncs=0 nrd=1 nwr=1 start_in=0 A0=1 A1=0 din=243  cout=14 
# -start flag-1 0           0
#                  170ncs=0 nrd=1 nwr=1 start_in=0 A0=1 A1=0 din=243  cout=15 
#                  175ncs=0 nrd=1 nwr=1 start_in=0 A0=1 A1=0 din=243  cout=15 
# -start flag-1 0           0
#                  180ncs=0 nrd=1 nwr=1 start_in=0 A0=1 A1=0 din=243  cout=14 
#                  185ncs=0 nrd=1 nwr=1 start_in=0 A0=1 A1=0 din=243  cout=14 
# -start flag-1 0           0
#                  190ncs=0 nrd=1 nwr=1 start_in=0 A0=1 A1=0 din=243  cout=13 
#                  195ncs=0 nrd=1 nwr=1 start_in=0 A0=1 A1=0 din=243  cout=13 
# -start flag-1 0           0
#                  200ncs=0 nrd=1 nwr=1 start_in=0 A0=1 A1=0 din=243  cout=12 
#                  205ncs=0 nrd=1 nwr=1 start_in=0 A0=1 A1=0 din=243  cout=12 
# -start flag-1 0           0
#                  210ncs=0 nrd=1 nwr=1 start_in=0 A0=1 A1=0 din=243  cout=11 
#                  215ncs=0 nrd=1 nwr=1 start_in=0 A0=1 A1=0 din=243  cout=11 
# -start flag-1 0           0
#                  220ncs=0 nrd=1 nwr=1 start_in=0 A0=1 A1=0 din=243  cout=10 
#                  225ncs=0 nrd=1 nwr=1 start_in=0 A0=1 A1=0 din=243  cout=10 
# -start flag-1 0           0
#                  230ncs=0 nrd=1 nwr=1 start_in=0 A0=1 A1=0 din=243  cout=9 
#                  235ncs=0 nrd=1 nwr=1 start_in=0 A0=1 A1=0 din=243  cout=9 
# -start flag-1 0           0
#                  240ncs=0 nrd=1 nwr=1 start_in=0 A0=1 A1=0 din=243  cout=8 
#                  245ncs=0 nrd=1 nwr=1 start_in=0 A0=1 A1=0 din=243  cout=8 
# -start flag-1 0           0
#                  250ncs=0 nrd=1 nwr=1 start_in=0 A0=1 A1=0 din=243  cout=7 
#                  255ncs=0 nrd=1 nwr=1 start_in=0 A0=1 A1=0 din=243  cout=7 
# -start flag-1 0           0
#                  260ncs=0 nrd=1 nwr=1 start_in=0 A0=1 A1=0 din=243  cout=6 
#                  265ncs=0 nrd=1 nwr=1 start_in=0 A0=1 A1=0 din=243  cout=6 
# -start flag-1 0           0
#                  270ncs=0 nrd=1 nwr=1 start_in=0 A0=1 A1=0 din=243  cout=5 
#                  275ncs=0 nrd=1 nwr=1 start_in=0 A0=1 A1=0 din=243  cout=5 
# -start flag-1 0           0
#                  280ncs=0 nrd=1 nwr=1 start_in=0 A0=1 A1=0 din=243  cout=6 
#                  285ncs=0 nrd=1 nwr=1 start_in=0 A0=1 A1=0 din=243  cout=6 
# -start flag-1 0           0
#                  290ncs=0 nrd=1 nwr=1 start_in=0 A0=1 A1=0 din=243  cout=7 
#                  295ncs=0 nrd=1 nwr=1 start_in=0 A0=1 A1=0 din=243  cout=7 
# -start flag-1 0           0
#                  300ncs=0 nrd=1 nwr=1 start_in=0 A0=1 A1=0 din=243  cout=8 
#                  305ncs=0 nrd=1 nwr=1 start_in=0 A0=1 A1=0 din=243  cout=8 
# -start flag-1 0           0
#                  310ncs=0 nrd=1 nwr=1 start_in=0 A0=1 A1=0 din=243  cout=9 
#                  315ncs=0 nrd=1 nwr=1 start_in=0 A0=1 A1=0 din=243  cout=9 
# -start flag-1 0           0
#                  320ncs=0 nrd=1 nwr=1 start_in=0 A0=1 A1=0 din=243  cout=10 
#                  325ncs=0 nrd=1 nwr=1 start_in=0 A0=1 A1=0 din=243  cout=10 
# -start flag-1 0           0
#                  330ncs=0 nrd=1 nwr=1 start_in=0 A0=1 A1=0 din=243  cout=11 
#                  335ncs=0 nrd=1 nwr=1 start_in=0 A0=1 A1=0 din=243  cout=11 
# -start flag-1 0           0
#                  340ncs=0 nrd=1 nwr=1 start_in=0 A0=1 A1=0 din=243  cout=12 
#                  345ncs=0 nrd=1 nwr=1 start_in=0 A0=1 A1=0 din=243  cout=12 
# -start flag-1 0           0
#                  350ncs=0 nrd=1 nwr=1 start_in=0 A0=1 A1=0 din=243  cout=13 
#                  355ncs=0 nrd=1 nwr=1 start_in=0 A0=1 A1=0 din=243  cout=13 
# -start flag-1 0           0
#                  360ncs=0 nrd=1 nwr=1 start_in=0 A0=1 A1=0 din=243  cout=14 
#                  365ncs=0 nrd=1 nwr=1 start_in=0 A0=1 A1=0 din=243  cout=14 
# -start flag-1 0           0
#                  370ncs=0 nrd=1 nwr=1 start_in=0 A0=1 A1=0 din=243  cout=15 
#                  375ncs=0 nrd=1 nwr=1 start_in=0 A0=1 A1=0 din=243  cout=15 
# -start flag-1 0           0
#                  380ncs=0 nrd=1 nwr=1 start_in=0 A0=1 A1=0 din=243  cout=14 
#                  385ncs=0 nrd=1 nwr=1 start_in=0 A0=1 A1=0 din=243  cout=14 
# -start flag-1 0           0
#                  390ncs=0 nrd=1 nwr=1 start_in=0 A0=1 A1=0 din=243  cout=13 
#                  395ncs=0 nrd=1 nwr=1 start_in=0 A0=1 A1=0 din=243  cout=13 
# -start flag-1 0           0
#                  400ncs=0 nrd=1 nwr=1 start_in=0 A0=1 A1=0 din=243  cout=12 
#                  405ncs=0 nrd=1 nwr=1 start_in=0 A0=1 A1=0 din=243  cout=12 
# -start flag-1 0           0
#                  410ncs=0 nrd=1 nwr=1 start_in=0 A0=1 A1=0 din=243  cout=11 
#                  415ncs=0 nrd=1 nwr=1 start_in=0 A0=1 A1=0 din=243  cout=11 
# -start flag-1 0           0
#                  420ncs=0 nrd=1 nwr=1 start_in=0 A0=1 A1=0 din=243  cout=10 
#                  425ncs=0 nrd=1 nwr=1 start_in=0 A0=1 A1=0 din=243  cout=10 
# -start flag-1 0           0
#                  430ncs=0 nrd=1 nwr=1 start_in=0 A0=1 A1=0 din=243  cout=9 
#                  435ncs=0 nrd=1 nwr=1 start_in=0 A0=1 A1=0 din=243  cout=9 
# -start flag-1 0           0
#                  440ncs=0 nrd=1 nwr=1 start_in=0 A0=1 A1=0 din=243  cout=8 
#                  445ncs=0 nrd=1 nwr=1 start_in=0 A0=1 A1=0 din=243  cout=8 
# -start flag-1 0           0
#                  450ncs=0 nrd=1 nwr=1 start_in=0 A0=1 A1=0 din=243  cout=7 
#                  455ncs=0 nrd=1 nwr=1 start_in=0 A0=1 A1=0 din=243  cout=7 
# -start flag-1 0           0
#                  460ncs=0 nrd=1 nwr=1 start_in=0 A0=1 A1=0 din=243  cout=6 
#                  465ncs=0 nrd=1 nwr=1 start_in=0 A0=1 A1=0 din=243  cout=6 
# -start flag-1 0           0
#                  470ncs=0 nrd=1 nwr=1 start_in=0 A0=1 A1=0 din=243  cout=5 
#                  475ncs=0 nrd=1 nwr=1 start_in=0 A0=1 A1=0 din=243  cout=5 
# -start flag-1 0           0
#                  480ncs=0 nrd=1 nwr=1 start_in=0 A0=1 A1=0 din=243  cout=6 
#                  485ncs=0 nrd=1 nwr=1 start_in=0 A0=1 A1=0 din=243  cout=6 
# -start flag-1 0           0
#                  490ncs=0 nrd=1 nwr=1 start_in=0 A0=1 A1=0 din=243  cout=7 
#                  495ncs=0 nrd=1 nwr=1 start_in=0 A0=1 A1=0 din=243  cout=7 
# -start flag-1 0           0
#                  500ncs=0 nrd=1 nwr=1 start_in=0 A0=1 A1=0 din=243  cout=8 
#                  505ncs=0 nrd=1 nwr=1 start_in=0 A0=1 A1=0 din=243  cout=8 
# -start flag-1 0           0
#                  510ncs=0 nrd=1 nwr=1 start_in=0 A0=1 A1=0 din=243  cout=9 
#                  515ncs=0 nrd=1 nwr=1 start_in=0 A0=1 A1=0 din=243  cout=9 
# -start flag-1 0           0
#                  520ncs=0 nrd=1 nwr=1 start_in=0 A0=1 A1=0 din=243  cout=10 
#                  525ncs=0 nrd=1 nwr=1 start_in=0 A0=1 A1=0 din=243  cout=10 
# ec******************************
# -start flag-0 0           0
#                  530ncs=0 nrd=1 nwr=1 start_in=0 A0=1 A1=0 din=243  cout=10 
#                  535ncs=0 nrd=1 nwr=1 start_in=0 A0=1 A1=0 din=243  cout=10 
# -start flag-0 0           0
#                  540ncs=0 nrd=1 nwr=1 start_in=0 A0=1 A1=0 din=243  cout=10 
#                  545ncs=0 nrd=1 nwr=1 start_in=0 A0=1 A1=0 din=243  cout=10 
# -start flag-0 0           0
#                  550ncs=0 nrd=1 nwr=1 start_in=0 A0=1 A1=0 din=243  cout=10 
#                  555ncs=0 nrd=1 nwr=1 start_in=0 A0=1 A1=0 din=243  cout=10 
# -start flag-0 0           0
#                  560ncs=0 nrd=1 nwr=1 start_in=0 A0=1 A1=0 din=243  cout=10 
#                  565ncs=0 nrd=1 nwr=1 start_in=0 A0=1 A1=0 din=243  cout=10 
# -start flag-0 0           0
#                  570ncs=0 nrd=1 nwr=1 start_in=0 A0=1 A1=0 din=243  cout=10 
#                  575ncs=0 nrd=1 nwr=1 start_in=0 A0=1 A1=0 din=243  cout=10 
# -start flag-0 0           0
#                  580ncs=0 nrd=1 nwr=1 start_in=0 A0=1 A1=0 din=243  cout=10 
#                  585ncs=0 nrd=1 nwr=1 start_in=0 A0=1 A1=0 din=243  cout=10 
# -start flag-0 0           0
#                  590ncs=0 nrd=1 nwr=1 start_in=0 A0=1 A1=0 din=243  cout=10 
#                  595ncs=0 nrd=1 nwr=1 start_in=0 A0=1 A1=0 din=243  cout=10 
# -start flag-0 0           0
#                  600ncs=0 nrd=1 nwr=1 start_in=0 A0=1 A1=0 din=243  cout=10 
#                  605ncs=0 nrd=1 nwr=1 start_in=0 A0=1 A1=0 din=243  cout=10 
# -start flag-0 0           0
#                  610ncs=0 nrd=1 nwr=1 start_in=0 A0=1 A1=0 din=243  cout=10 
#                  615ncs=0 nrd=1 nwr=1 start_in=0 A0=1 A1=0 din=243  cout=10 
# -start flag-0 0           0
#                  620ncs=0 nrd=1 nwr=1 start_in=0 A0=1 A1=0 din=243  cout=10 
#                  625ncs=0 nrd=1 nwr=1 start_in=0 A0=1 A1=0 din=243  cout=10 
# -start flag-0 0           0
#                  630ncs=0 nrd=1 nwr=1 start_in=0 A0=1 A1=0 din=243  cout=10 
#                  635ncs=0 nrd=1 nwr=1 start_in=0 A0=1 A1=0 din=243  cout=10 
# -start flag-0 0           0
#                  640ncs=0 nrd=1 nwr=1 start_in=0 A0=1 A1=0 din=243  cout=10 
#                  645ncs=0 nrd=1 nwr=1 start_in=0 A0=1 A1=0 din=243  cout=10 
# -start flag-0 0           0
#                  650ncs=0 nrd=1 nwr=1 start_in=0 A0=1 A1=0 din=243  cout=10 
#                  655ncs=0 nrd=1 nwr=1 start_in=0 A0=1 A1=0 din=243  cout=10 
# -start flag-0 0           0
#                  660ncs=0 nrd=1 nwr=1 start_in=0 A0=1 A1=0 din=243  cout=10 
#                  665ncs=0 nrd=1 nwr=1 start_in=0 A0=1 A1=0 din=243  cout=10 
# -start flag-0 0           0
#                  670ncs=0 nrd=1 nwr=1 start_in=0 A0=1 A1=0 din=243  cout=10 
#                  675ncs=0 nrd=1 nwr=1 start_in=0 A0=1 A1=0 din=243  cout=10 
# -start flag-0 0           0
#                  680ncs=0 nrd=1 nwr=1 start_in=0 A0=1 A1=0 din=243  cout=10 
#                  685ncs=0 nrd=1 nwr=1 start_in=0 A0=1 A1=0 din=243  cout=10 
# -start flag-0 0           0
#                  690ncs=0 nrd=1 nwr=1 start_in=0 A0=1 A1=0 din=243  cout=10 
#                  695ncs=0 nrd=1 nwr=1 start_in=0 A0=1 A1=0 din=243  cout=10 
# -start flag-0 0           0
#                  700ncs=0 nrd=1 nwr=1 start_in=0 A0=1 A1=0 din=243  cout=10 
#                  705ncs=0 nrd=1 nwr=1 start_in=0 A0=1 A1=0 din=243  cout=10 
# -start flag-0 0           0
#                  710ncs=0 nrd=1 nwr=1 start_in=0 A0=1 A1=0 din=243  cout=10 
#                  715ncs=0 nrd=1 nwr=1 start_in=0 A0=1 A1=0 din=243  cout=10 
# -start flag-0 0           0
#                  720ncs=0 nrd=1 nwr=1 start_in=0 A0=1 A1=0 din=243  cout=10 
#                  725ncs=0 nrd=1 nwr=1 start_in=0 A0=1 A1=0 din=243  cout=10 
# -start flag-0 0           0
#                  730ncs=0 nrd=1 nwr=1 start_in=0 A0=1 A1=0 din=243  cout=10 
#                  735ncs=0 nrd=1 nwr=1 start_in=0 A0=1 A1=0 din=243  cout=10 
# -start flag-0 0           0
#                  740ncs=0 nrd=1 nwr=1 start_in=0 A0=1 A1=0 din=243  cout=10 
#                  745ncs=0 nrd=1 nwr=1 start_in=0 A0=1 A1=0 din=243  cout=10 
# -start flag-0 0           0
#                  750ncs=0 nrd=1 nwr=1 start_in=0 A0=1 A1=0 din=243  cout=10 
#                  755ncs=0 nrd=1 nwr=1 start_in=0 A0=1 A1=0 din=243  cout=10 
# -start flag-0 0           0
#                  760ncs=0 nrd=1 nwr=1 start_in=0 A0=1 A1=0 din=243  cout=10 
#                  765ncs=0 nrd=1 nwr=1 start_in=0 A0=1 A1=0 din=243  cout=10 
# -start flag-0 0           0
#                  770ncs=0 nrd=1 nwr=1 start_in=0 A0=1 A1=0 din=243  cout=10 
#                  775ncs=0 nrd=1 nwr=1 start_in=0 A0=1 A1=0 din=243  cout=10 
# -start flag-0 0           0
#                  780ncs=0 nrd=1 nwr=1 start_in=0 A0=1 A1=0 din=243  cout=10 
#                  785ncs=0 nrd=1 nwr=1 start_in=0 A0=1 A1=0 din=243  cout=10 
# -start flag-0 0           0
#                  790ncs=0 nrd=1 nwr=1 start_in=0 A0=1 A1=0 din=243  cout=10 
#                  795ncs=0 nrd=1 nwr=1 start_in=0 A0=1 A1=0 din=243  cout=10 
# -start flag-0 0           0
#                  800ncs=0 nrd=1 nwr=1 start_in=0 A0=1 A1=0 din=243  cout=10 
#                  805ncs=0 nrd=1 nwr=1 start_in=0 A0=1 A1=0 din=243  cout=10 
# -start flag-0 0           0
#                  810ncs=0 nrd=1 nwr=1 start_in=0 A0=1 A1=0 din=243  cout=10 
#                  815ncs=0 nrd=1 nwr=1 start_in=0 A0=1 A1=0 din=243  cout=10 
# -start flag-0 0           0
#                  820ncs=0 nrd=1 nwr=1 start_in=0 A0=1 A1=0 din=243  cout=10 
#                  825ncs=0 nrd=1 nwr=1 start_in=0 A0=1 A1=0 din=243  cout=10 
# -start flag-0 0           0
#                  830ncs=0 nrd=1 nwr=1 start_in=0 A0=1 A1=0 din=243  cout=10 
#                  835ncs=0 nrd=1 nwr=1 start_in=0 A0=1 A1=0 din=243  cout=10 
# -start flag-0 0           0
#                  840ncs=0 nrd=1 nwr=1 start_in=0 A0=1 A1=0 din=243  cout=10 
#                  845ncs=0 nrd=1 nwr=1 start_in=0 A0=1 A1=0 din=243  cout=10 
# -start flag-0 0           0
#                  850ncs=0 nrd=1 nwr=1 start_in=0 A0=1 A1=0 din=243  cout=10 
#                  855ncs=0 nrd=1 nwr=1 start_in=0 A0=1 A1=0 din=243  cout=10 
# -start flag-0 0           0
#                  860ncs=0 nrd=1 nwr=1 start_in=0 A0=1 A1=0 din=243  cout=10 
#                  865ncs=0 nrd=1 nwr=1 start_in=0 A0=1 A1=0 din=243  cout=10 
# -start flag-0 0           0
#                  870ncs=0 nrd=1 nwr=1 start_in=0 A0=1 A1=0 din=243  cout=10 
#                  875ncs=0 nrd=1 nwr=1 start_in=0 A0=1 A1=0 din=243  cout=10 
# -start flag-0 0           0
#                  880ncs=0 nrd=1 nwr=1 start_in=0 A0=1 A1=0 din=243  cout=10 
#                  885ncs=0 nrd=1 nwr=1 start_in=0 A0=1 A1=0 din=243  cout=10 
# -start flag-0 0           0
#                  890ncs=0 nrd=1 nwr=1 start_in=0 A0=1 A1=0 din=243  cout=10 
#                  895ncs=0 nrd=1 nwr=1 start_in=0 A0=1 A1=0 din=243  cout=10 
# -start flag-0 0           0
#                  900ncs=0 nrd=1 nwr=1 start_in=0 A0=1 A1=0 din=243  cout=10 
#                  905ncs=0 nrd=1 nwr=1 start_in=0 A0=1 A1=0 din=243  cout=10 
# -start flag-0 0           0
#                  910ncs=0 nrd=1 nwr=1 start_in=0 A0=1 A1=0 din=243  cout=10 
#                  915ncs=0 nrd=1 nwr=1 start_in=0 A0=1 A1=0 din=243  cout=10 
# -start flag-0 0           0
#                  920ncs=0 nrd=1 nwr=1 start_in=0 A0=1 A1=0 din=243  cout=10 
#                  925ncs=0 nrd=1 nwr=1 start_in=0 A0=1 A1=0 din=243  cout=10 
# -start flag-0 0           0
#                  930ncs=0 nrd=1 nwr=1 start_in=0 A0=1 A1=0 din=243  cout=10 
#                  935ncs=0 nrd=1 nwr=1 start_in=0 A0=1 A1=0 din=243  cout=10 
# -start flag-0 0           0
#                  940ncs=0 nrd=1 nwr=1 start_in=0 A0=1 A1=0 din=243  cout=10 
#                  945ncs=0 nrd=1 nwr=1 start_in=0 A0=1 A1=0 din=243  cout=10 
# -start flag-0 0           0
#                  950ncs=0 nrd=1 nwr=1 start_in=0 A0=1 A1=0 din=243  cout=10 
#                  955ncs=0 nrd=1 nwr=1 start_in=0 A0=1 A1=0 din=243  cout=10 
# -start flag-0 0           0
#                  960ncs=0 nrd=1 nwr=1 start_in=0 A0=1 A1=0 din=243  cout=10 
#                  965ncs=0 nrd=1 nwr=1 start_in=0 A0=1 A1=0 din=243  cout=10 
# -start flag-0 0           0
#                  970ncs=0 nrd=1 nwr=1 start_in=0 A0=1 A1=0 din=243  cout=10 
#                  975ncs=0 nrd=1 nwr=1 start_in=0 A0=1 A1=0 din=243  cout=10 
# -start flag-0 0           0
#                  980ncs=0 nrd=1 nwr=1 start_in=0 A0=1 A1=0 din=243  cout=10 
#                  985ncs=0 nrd=1 nwr=1 start_in=0 A0=1 A1=0 din=243  cout=10 
# -start flag-0 0           0
#                  990ncs=0 nrd=1 nwr=1 start_in=0 A0=1 A1=0 din=243  cout=10 
#                  995ncs=0 nrd=1 nwr=1 start_in=0 A0=1 A1=0 din=243  cout=10 
# -start flag-0 0           0
# ** Note: $finish    : 9_top.sv(22)
#    Time: 1 us  Iteration: 0  Instance: /top
# End time: 15:59:45 on Dec 10,2022, Elapsed time: 0:00:01
# Errors: 0, Warnings: 2
